<?xml version="1.0" encoding="UTF-8" standalone="no"?>
<!-- Created with Inkscape (http://www.inkscape.org/) -->

<svg
   xmlns:dc="http://purl.org/dc/elements/1.1/"
   xmlns:cc="http://creativecommons.org/ns#"
   xmlns:rdf="http://www.w3.org/1999/02/22-rdf-syntax-ns#"
   xmlns:svg="http://www.w3.org/2000/svg"
   xmlns="http://www.w3.org/2000/svg"
   xmlns:sodipodi="http://sodipodi.sourceforge.net/DTD/sodipodi-0.dtd"
   xmlns:inkscape="http://www.inkscape.org/namespaces/inkscape"
   width="210mm"
   height="297mm"
   viewBox="0 0 744.09448819 1052.3622047"
   id="svg2"
   version="1.1"
   inkscape:version="0.91 r13725"
   sodipodi:docname="realconebeamp2.svg">
  <defs
     id="defs4">
    <inkscape:perspective
       sodipodi:type="inkscape:persp3d"
       inkscape:vp_x="-12.438725 : 705.71341 : 1"
       inkscape:vp_y="0 : 1000 : 0"
       inkscape:vp_z="743.08434 : 692.85627 : 1"
       inkscape:persp3d-origin="371.03709 : 517.46257 : 1"
       id="perspective3392" />
  </defs>
  <sodipodi:namedview
     id="base"
     pagecolor="#ffffff"
     bordercolor="#666666"
     borderopacity="1.0"
     inkscape:pageopacity="0.0"
     inkscape:pageshadow="2"
     inkscape:zoom="0.49497475"
     inkscape:cx="-391.68423"
     inkscape:cy="851.45511"
     inkscape:document-units="px"
     inkscape:current-layer="layer1"
     showgrid="false"
     inkscape:snap-bbox="false"
     inkscape:snap-grids="false"
     showguides="false"
     inkscape:window-width="1637"
     inkscape:window-height="1026"
     inkscape:window-x="43"
     inkscape:window-y="24"
     inkscape:window-maximized="1" />
  <metadata
     id="metadata7">
    <rdf:RDF>
      <cc:Work
         rdf:about="">
        <dc:format>image/svg+xml</dc:format>
        <dc:type
           rdf:resource="http://purl.org/dc/dcmitype/StillImage" />
        <dc:title></dc:title>
      </cc:Work>
    </rdf:RDF>
  </metadata>
  <g
     inkscape:label="Layer 1"
     inkscape:groupmode="layer"
     id="layer1">
    <path
       inkscape:connector-curvature="0"
       id="path4945"
       d="m 432.16003,606.39801 -18.10024,0.0317 10.38394,-16.15115 z"
       style="fill:none;fill-rule:evenodd;stroke:#000000;stroke-width:0.86270738px;stroke-linecap:butt;stroke-linejoin:miter;stroke-opacity:1" />
    <g
       id="g4406-3"
       transform="matrix(1.3099536,0,0,1.0172241,-208.74558,294.34121)">
      <ellipse
         ry="15.657365"
         rx="31.819805"
         cy="472.32019"
         cx="402.97305"
         id="path4360-5"
         style="fill:#b3b3b3;fill-opacity:1;stroke:#000000;stroke-opacity:1" />
      <path
         inkscape:connector-curvature="0"
         id="path4404-6"
         d="m 370.71429,547.89792 0.53572,-76.78572 c 0,0 2.14285,-13.39285 31.42857,-14.82143 29.28571,-1.42857 32.67857,16.60715 32.67857,16.60715 l -0.53571,75.89286 c 0,0 1.60714,13.75 -31.96429,15.53571 -33.57143,1.78571 -32.14286,-16.42857 -32.14286,-16.42857 z"
         style="fill:none;fill-rule:evenodd;stroke:#000000;stroke-width:1px;stroke-linecap:butt;stroke-linejoin:miter;stroke-opacity:1" />
    </g>
    <rect
       style="fill:none;fill-opacity:1;stroke:#000000;stroke-width:0.75768209;stroke-opacity:1"
       id="rect4669"
       width="141.6709"
       height="147.38518"
       x="211.82947"
       y="788.26294" />
    <path
       style="fill:none;fill-rule:evenodd;stroke:#000000;stroke-width:0.73992556px;stroke-linecap:butt;stroke-linejoin:miter;stroke-opacity:1"
       d="m 353.74683,934.42141 67.04982,-84.26716"
       id="path4709"
       inkscape:connector-curvature="0" />
    <path
       style="fill:none;fill-rule:evenodd;stroke:#000000;stroke-width:0.74640316px;stroke-linecap:butt;stroke-linejoin:miter;stroke-opacity:1"
       d="m 353.52908,788.35428 67.42378,-85.27343"
       id="path4709-7"
       inkscape:connector-curvature="0" />
    <path
       style="fill:none;fill-rule:evenodd;stroke:#000000;stroke-width:1px;stroke-linecap:butt;stroke-linejoin:miter;stroke-opacity:1"
       d="m 420.54885,850.50911 0.35714,-147.5"
       id="path4747"
       inkscape:connector-curvature="0" />
    <path
       inkscape:connector-curvature="0"
       id="path4764"
       d="m 211.52908,788.35428 67.42378,-85.27343"
       style="fill:none;fill-rule:evenodd;stroke:#000000;stroke-width:0.74640316px;stroke-linecap:butt;stroke-linejoin:miter;stroke-opacity:1" />
    <path
       style="fill:none;fill-rule:evenodd;stroke:#000000;stroke-width:0.9975372px;stroke-linecap:butt;stroke-linejoin:miter;stroke-opacity:1"
       d="m 278.30782,703.66975 141.7856,0.35719"
       id="path4766"
       inkscape:connector-curvature="0" />
    <ellipse
       style="fill:#000000;fill-opacity:1;stroke:#000000;stroke-opacity:1"
       id="path4768"
       cx="318.73633"
       cy="821.24121"
       rx="3.2142856"
       ry="3.5714285" />
    <text
       xml:space="preserve"
       style="font-style:normal;font-weight:normal;font-size:20px;line-height:125%;font-family:sans-serif;letter-spacing:0px;word-spacing:0px;fill:#000000;fill-opacity:1;stroke:none;stroke-width:1px;stroke-linecap:butt;stroke-linejoin:miter;stroke-opacity:1"
       x="319.09351"
       y="839.81262"
       id="text4770"
       sodipodi:linespacing="125%"><tspan
         sodipodi:role="line"
         id="tspan4772"
         x="319.09351"
         y="839.81262">V</tspan></text>
    <text
       xml:space="preserve"
       style="font-style:normal;font-weight:normal;font-size:12.5px;line-height:125%;font-family:sans-serif;letter-spacing:0px;word-spacing:0px;fill:#000000;fill-opacity:1;stroke:none;stroke-width:1px;stroke-linecap:butt;stroke-linejoin:miter;stroke-opacity:1"
       x="331.66492"
       y="839.09833"
       id="text4774"
       sodipodi:linespacing="125%"><tspan
         sodipodi:role="line"
         id="tspan4776"
         x="331.66492"
         y="839.09833">(Vx,Vy,Vz)</tspan></text>
    <text
       xml:space="preserve"
       style="font-style:normal;font-weight:normal;font-size:20px;line-height:125%;font-family:sans-serif;letter-spacing:0px;word-spacing:0px;fill:#000000;fill-opacity:1;stroke:none;stroke-width:1px;stroke-linecap:butt;stroke-linejoin:miter;stroke-opacity:1"
       x="252.53812"
       y="957.4079"
       id="text4778"
       sodipodi:linespacing="125%"><tspan
         sodipodi:role="line"
         id="tspan4780"
         x="252.53812"
         y="957.4079">Size</tspan></text>
    <text
       sodipodi:linespacing="125%"
       id="text4782"
       y="872.55505"
       x="159.6041"
       style="font-style:normal;font-weight:normal;font-size:20px;line-height:125%;font-family:sans-serif;letter-spacing:0px;word-spacing:0px;fill:#000000;fill-opacity:1;stroke:none;stroke-width:1px;stroke-linecap:butt;stroke-linejoin:miter;stroke-opacity:1"
       xml:space="preserve"><tspan
         y="872.55505"
         x="159.6041"
         id="tspan4784"
         sodipodi:role="line">Size</tspan></text>
    <text
       xml:space="preserve"
       style="font-style:normal;font-weight:normal;font-size:20px;line-height:125%;font-family:sans-serif;letter-spacing:0px;word-spacing:0px;fill:#000000;fill-opacity:1;stroke:none;stroke-width:1px;stroke-linecap:butt;stroke-linejoin:miter;stroke-opacity:1"
       x="197.9899"
       y="741.23523"
       id="text4792"
       sodipodi:linespacing="125%"><tspan
         sodipodi:role="line"
         id="tspan4794"
         x="197.9899"
         y="741.23523">Size</tspan></text>
    <path
       inkscape:connector-curvature="0"
       id="path4876"
       d="m 102.56266,820.96063 463.27592,0.34685"
       style="fill:none;fill-rule:evenodd;stroke:#000000;stroke-width:1.77684402px;stroke-linecap:butt;stroke-linejoin:miter;stroke-opacity:1" />
    <path
       inkscape:connector-curvature="0"
       id="path4878"
       d="m 318.55149,953.15545 0.35186,-303.87318"
       style="fill:none;fill-rule:evenodd;stroke:#000000;stroke-width:1.42468357px;stroke-linecap:butt;stroke-linejoin:miter;stroke-opacity:1" />
    <path
       inkscape:connector-curvature="0"
       id="path4709-6"
       d="M 214.76388,956.10623 479.91921,609.60873"
       style="fill:none;fill-rule:evenodd;stroke:#000000;stroke-width:2.98373532px;stroke-linecap:butt;stroke-linejoin:miter;stroke-opacity:1" />
    <path
       style="fill:none;fill-rule:evenodd;stroke:#000000;stroke-width:1.02979827px;stroke-linecap:butt;stroke-linejoin:miter;stroke-opacity:1"
       d="m 423.53695,764.40581 0.35466,-157.51579"
       id="path4878-0"
       inkscape:connector-curvature="0" />
    <path
       style="fill:none;fill-rule:evenodd;stroke:#000000;stroke-width:1.08601809px;stroke-linecap:butt;stroke-linejoin:miter;stroke-opacity:1"
       d="m 339.94131,682.61539 171.11737,0.35079"
       id="path4876-6"
       inkscape:connector-curvature="0" />
    <text
       xml:space="preserve"
       style="font-style:normal;font-weight:normal;font-size:20px;line-height:125%;font-family:sans-serif;letter-spacing:0px;word-spacing:0px;fill:#000000;fill-opacity:1;stroke:none;stroke-width:1px;stroke-linecap:butt;stroke-linejoin:miter;stroke-opacity:1"
       x="425.14288"
       y="701.36218"
       id="text4925"
       sodipodi:linespacing="125%"><tspan
         sodipodi:role="line"
         id="tspan4927"
         x="425.14288"
         y="701.36218">O</tspan></text>
    <text
       xml:space="preserve"
       style="font-style:normal;font-weight:normal;font-size:12.5px;line-height:125%;font-family:sans-serif;letter-spacing:0px;word-spacing:0px;fill:#000000;fill-opacity:1;stroke:none;stroke-width:1px;stroke-linecap:butt;stroke-linejoin:miter;stroke-opacity:1"
       x="440.14288"
       y="704.21936"
       id="text4929"
       sodipodi:linespacing="125%"><tspan
         sodipodi:role="line"
         id="tspan4931"
         x="440.14288"
         y="704.21936">(0,0,0)</tspan></text>
    <text
       xml:space="preserve"
       style="font-style:normal;font-weight:normal;font-size:20px;line-height:125%;font-family:sans-serif;letter-spacing:0px;word-spacing:0px;fill:#000000;fill-opacity:1;stroke:none;stroke-width:1px;stroke-linecap:butt;stroke-linejoin:miter;stroke-opacity:1"
       x="493.71429"
       y="604.21936"
       id="text4933"
       sodipodi:linespacing="125%"><tspan
         sodipodi:role="line"
         id="tspan4935"
         x="493.71429"
         y="604.21936">Z</tspan></text>
    <text
       xml:space="preserve"
       style="font-style:normal;font-weight:normal;font-size:20px;line-height:125%;font-family:sans-serif;letter-spacing:0px;word-spacing:0px;fill:#000000;fill-opacity:1;stroke:none;stroke-width:1px;stroke-linecap:butt;stroke-linejoin:miter;stroke-opacity:1"
       x="431.57141"
       y="597.79083"
       id="text4941"
       sodipodi:linespacing="125%"><tspan
         sodipodi:role="line"
         id="tspan4943"
         x="431.57141"
         y="597.79083">Y</tspan></text>
    <path
       style="fill:none;fill-rule:evenodd;stroke:#000000;stroke-width:0.86270738px;stroke-linecap:butt;stroke-linejoin:miter;stroke-opacity:1"
       d="m 510.87189,691.30852 -0.19944,-18.09917 16.24669,10.23382 z"
       id="path4976"
       inkscape:connector-curvature="0" />
    <text
       sodipodi:linespacing="125%"
       id="text4978"
       y="673.64795"
       x="522.71429"
       style="font-style:normal;font-weight:normal;font-size:20px;line-height:125%;font-family:sans-serif;letter-spacing:0px;word-spacing:0px;fill:#000000;fill-opacity:1;stroke:none;stroke-width:1px;stroke-linecap:butt;stroke-linejoin:miter;stroke-opacity:1"
       xml:space="preserve"><tspan
         y="673.64795"
         x="522.71429"
         id="tspan4980"
         sodipodi:role="line">X</tspan></text>
    <path
       style="fill:none;fill-rule:evenodd;stroke:#000000;stroke-width:0.86270738px;stroke-linecap:butt;stroke-linejoin:miter;stroke-opacity:1"
       d="m 488.4044,613.96288 -15.37453,-9.55215 17.35814,-8.20857 z"
       id="path4982"
       inkscape:connector-curvature="0" />
    <g
       id="g5702">
      <g
         transform="matrix(0.44670252,0,0,1.0018476,279.49247,-0.78012313)"
         id="g5421">
        <ellipse
           style="fill:#c0bfc0;fill-opacity:1;stroke:#000000;stroke-width:0.96242976;stroke-opacity:1"
           id="path3498-6"
           cx="643.45294"
           cy="422.71173"
           rx="58.701157"
           ry="66.43161" />
        <path
           style="fill:none;fill-rule:evenodd;stroke:#000000;stroke-width:1px;stroke-linecap:butt;stroke-linejoin:miter;stroke-opacity:1"
           d="M 637.40626,355.35695 269.71073,426.06763"
           id="path5411"
           inkscape:connector-curvature="0" />
        <path
           style="fill:none;fill-rule:evenodd;stroke:#000000;stroke-width:1px;stroke-linecap:butt;stroke-linejoin:miter;stroke-opacity:1"
           d="M 646.49763,488.69709 276.7818,427.07778"
           id="path5415"
           inkscape:connector-curvature="0" />
      </g>
      <path
         style="fill:none;fill-rule:evenodd;stroke:#000000;stroke-width:1.14405656px;stroke-linecap:butt;stroke-linejoin:miter;stroke-opacity:1"
         d="m 568.43736,518.42127 0.354,-194.7682"
         id="path4878-02"
         inkscape:connector-curvature="0" />
      <path
         style="fill:none;fill-rule:evenodd;stroke:#000000;stroke-width:1.32063127px;stroke-linecap:butt;stroke-linejoin:miter;stroke-opacity:1"
         d="M 365.36772,425.893 619.531,426.24225"
         id="path4876-2"
         inkscape:connector-curvature="0" />
      <text
         sodipodi:linespacing="125%"
         id="text4933-3"
         y="419.1749"
         x="635.70795"
         style="font-style:normal;font-weight:normal;font-size:20px;line-height:125%;font-family:sans-serif;letter-spacing:0px;word-spacing:0px;fill:#000000;fill-opacity:1;stroke:none;stroke-width:1px;stroke-linecap:butt;stroke-linejoin:miter;stroke-opacity:1"
         xml:space="preserve"><tspan
           y="419.1749"
           x="635.70795"
           id="tspan4935-7"
           sodipodi:role="line">Z</tspan></text>
      <text
         sodipodi:linespacing="125%"
         id="text4941-5"
         y="313.81448"
         x="577.75977"
         style="font-style:normal;font-weight:normal;font-size:20px;line-height:125%;font-family:sans-serif;letter-spacing:0px;word-spacing:0px;fill:#000000;fill-opacity:1;stroke:none;stroke-width:1px;stroke-linecap:butt;stroke-linejoin:miter;stroke-opacity:1"
         xml:space="preserve"><tspan
           y="313.81448"
           x="577.75977"
           id="tspan4943-9"
           sodipodi:role="line">X</tspan></text>
      <path
         style="fill:none;fill-rule:evenodd;stroke:#000000;stroke-width:0.86270738px;stroke-linecap:butt;stroke-linejoin:miter;stroke-opacity:1"
         d="m 577.81944,323.22014 -18.10024,0.0317 10.38394,-16.15115 z"
         id="path4945-2"
         inkscape:connector-curvature="0" />
      <path
         inkscape:connector-curvature="0"
         id="path4976-2"
         d="m 620.14867,435.16666 -0.19944,-18.09917 16.24669,10.23382 z"
         style="fill:none;fill-rule:evenodd;stroke:#000000;stroke-width:0.86270738px;stroke-linecap:butt;stroke-linejoin:miter;stroke-opacity:1" />
      <path
         sodipodi:open="true"
         d="M 444.4619,405.69001 A 20.826492,19.370794 0 0 1 465.86388,424.36566 20.826492,19.370794 0 0 1 445.94,444.40619"
         sodipodi:end="1.5280734"
         sodipodi:start="4.6841227"
         sodipodi:ry="19.370794"
         sodipodi:rx="20.826492"
         sodipodi:cy="425.05307"
         sodipodi:cx="445.05051"
         sodipodi:type="arc"
         id="path5507"
         style="fill:none;fill-opacity:1;stroke:#000000;stroke-width:0.62075633;stroke-opacity:1" />
      <text
         sodipodi:linespacing="125%"
         id="text5513"
         y="417.98642"
         x="470.73111"
         style="font-style:normal;font-weight:normal;font-size:20px;line-height:125%;font-family:sans-serif;letter-spacing:0px;word-spacing:0px;fill:#000000;fill-opacity:1;stroke:none;stroke-width:1px;stroke-linecap:butt;stroke-linejoin:miter;stroke-opacity:1"
         xml:space="preserve"><tspan
           y="417.98642"
           x="470.73111"
           id="tspan5515"
           sodipodi:role="line">β</tspan></text>
      <path
         inkscape:connector-curvature="0"
         id="path5519"
         d="M 567.70625,505.86938 402.26953,504.85983"
         style="fill:none;fill-rule:evenodd;stroke:#000000;stroke-width:1.0145973px;stroke-linecap:butt;stroke-linejoin:miter;stroke-opacity:1" />
      <path
         inkscape:connector-curvature="0"
         id="path5527"
         d="m 402.02041,424.82288 0,91.14832"
         style="fill:none;fill-rule:evenodd;stroke:#000000;stroke-width:0.87077779px;stroke-linecap:butt;stroke-linejoin:miter;stroke-opacity:1" />
      <text
         sodipodi:linespacing="125%"
         id="text5529"
         y="526.64789"
         x="416.42859"
         style="font-style:normal;font-weight:normal;font-size:20px;line-height:125%;font-family:sans-serif;letter-spacing:0px;word-spacing:0px;fill:#000000;fill-opacity:1;stroke:none;stroke-width:1px;stroke-linecap:butt;stroke-linejoin:miter;stroke-opacity:1"
         xml:space="preserve"><tspan
           y="526.64789"
           x="416.42859"
           id="tspan5531"
           sodipodi:role="line">Cone Distance</tspan></text>
      <text
         sodipodi:linespacing="125%"
         id="text5533"
         y="444.50507"
         x="578.57141"
         style="font-style:normal;font-weight:normal;font-size:20px;line-height:125%;font-family:sans-serif;letter-spacing:0px;word-spacing:0px;fill:#000000;fill-opacity:1;stroke:none;stroke-width:1px;stroke-linecap:butt;stroke-linejoin:miter;stroke-opacity:1"
         xml:space="preserve"><tspan
           y="444.50507"
           x="578.57141"
           id="tspan5535"
           sodipodi:role="line">O</tspan></text>
      <text
         sodipodi:linespacing="125%"
         id="text5537"
         y="445.36221"
         x="595"
         style="font-style:normal;font-weight:normal;font-size:12.5px;line-height:125%;font-family:sans-serif;letter-spacing:0px;word-spacing:0px;fill:#000000;fill-opacity:1;stroke:none;stroke-width:1px;stroke-linecap:butt;stroke-linejoin:miter;stroke-opacity:1"
         xml:space="preserve"><tspan
           y="445.36221"
           x="595"
           id="tspan5539"
           sodipodi:role="line">(0,0,0)</tspan></text>
      <text
         sodipodi:linespacing="125%"
         id="text5603"
         y="406.87473"
         x="316.17773"
         style="font-style:normal;font-weight:normal;font-size:20px;line-height:125%;font-family:sans-serif;letter-spacing:0px;word-spacing:0px;fill:#000000;fill-opacity:1;stroke:none;stroke-width:1px;stroke-linecap:butt;stroke-linejoin:miter;stroke-opacity:1"
         xml:space="preserve"><tspan
           y="406.87473"
           x="316.17773"
           id="tspan5605"
           sodipodi:role="line">Beam Source</tspan></text>
      <path
         inkscape:connector-curvature="0"
         id="path5611"
         d="m 399.01025,425.05747 0,-14.14213"
         style="fill:none;fill-rule:evenodd;stroke:#000000;stroke-width:1px;stroke-linecap:butt;stroke-linejoin:miter;stroke-opacity:1" />
    </g>
  </g>
</svg>
