<?xml version="1.0" encoding="UTF-8" standalone="no"?>
<!-- Created with Inkscape (http://www.inkscape.org/) -->

<svg
   xmlns:dc="http://purl.org/dc/elements/1.1/"
   xmlns:cc="http://creativecommons.org/ns#"
   xmlns:rdf="http://www.w3.org/1999/02/22-rdf-syntax-ns#"
   xmlns:svg="http://www.w3.org/2000/svg"
   xmlns="http://www.w3.org/2000/svg"
   xmlns:xlink="http://www.w3.org/1999/xlink"
   xmlns:sodipodi="http://sodipodi.sourceforge.net/DTD/sodipodi-0.dtd"
   xmlns:inkscape="http://www.inkscape.org/namespaces/inkscape"
   width="64.153679mm"
   height="69.375923mm"
   viewBox="0 0 227.31619 245.8202"
   id="svg2"
   version="1.1"
   inkscape:version="0.91 r13725"
   sodipodi:docname="sinogram.svg">
  <defs
     id="defs4">
    <inkscape:perspective
       sodipodi:type="inkscape:persp3d"
       inkscape:vp_x="-12.438725 : 705.71338 : 1"
       inkscape:vp_y="0 : 999.99996 : 0"
       inkscape:vp_z="743.08433 : 692.85624 : 1"
       inkscape:persp3d-origin="371.03708 : 517.46255 : 1"
       id="perspective3392" />
  </defs>
  <sodipodi:namedview
     id="base"
     pagecolor="#ffffff"
     bordercolor="#666666"
     borderopacity="1.0"
     inkscape:pageopacity="0.0"
     inkscape:pageshadow="2"
     inkscape:zoom="0.49497475"
     inkscape:cx="116.48186"
     inkscape:cy="513.89385"
     inkscape:document-units="px"
     inkscape:current-layer="layer1"
     showgrid="false"
     inkscape:snap-bbox="false"
     inkscape:snap-grids="false"
     showguides="false"
     inkscape:window-width="1637"
     inkscape:window-height="1026"
     inkscape:window-x="43"
     inkscape:window-y="24"
     inkscape:window-maximized="1"
     fit-margin-top="0"
     fit-margin-left="0"
     fit-margin-right="0"
     fit-margin-bottom="0" />
  <metadata
     id="metadata7">
    <rdf:RDF>
      <cc:Work
         rdf:about="">
        <dc:format>image/svg+xml</dc:format>
        <dc:type
           rdf:resource="http://purl.org/dc/dcmitype/StillImage" />
        <dc:title></dc:title>
      </cc:Work>
    </rdf:RDF>
  </metadata>
  <g
     inkscape:label="Layer 1"
     inkscape:groupmode="layer"
     id="layer1"
     transform="translate(-99.941689,-388.3814)">
    <g
       id="g4439"
       transform="translate(10.101525,102.02541)">
      <image
         width="156"
         height="143"
         preserveAspectRatio="none"
         style="image-rendering:optimizeSpeed"
         xlink:href="data:image/png;base64,iVBORw0KGgoAAAANSUhEUgAAAJwAAACPCAYAAAAP+rJ4AAAABHNCSVQICAgIfAhkiAAAIABJREFU eJztXXmMG9d9/obH8iaXxx5c7sk9JFmr1WnJsS1btmT4bG03dtK6aR0DcdEarRsETdOif7QoiqIo 0CL/BQV6pI3tNoBTp75ky5LtOJZs2bq10h7ci3tweezB5XLJ5Tn9Y/OeHx/fDLnyIcXmByyWHM68 eTPzze96v/d7kizLMmqo4QuC5np3oIavFmqEq+ELRY1wNXyhqBHuV5BlGdlsFjWT9vOF7np34EZB sVjEyZMnAQDd3d1oampCXV0dJEm6zj37cqFGOAaRSASBQADnz5+Hx+NBb28vWltb4Xa7YTabr3f3 vhSoEY6BTqeDRqPB+vo6pqenMTMzA4PBgIaGBnR2dsLv91PJV8O1oUa4X0GSJGg0mpL/xK6bnZ3F zMwMzp07B5fLhZaWFvT09KCpqakm+TaJGuE4EJtNkqQS+02WZayvr2N2dhazs7O4cOECPB4PlXzN zc01m68K1AjHgJCMkEaWZSrpyDatVgsAyOfzCIVCCIVCOH/+PNxuNxobG9HX1wev11uTfAqoEY4B q06BDcKxpCPbCCm1Wm2J5JuZmcHg4CA8Hg+6urrQ3NwMn88Hq9Vak3y/Qo1wDHgJJ0kSCoVCiU3H xunIZ5aQRPLNzc1Bp9PB7XbD5/Ohr68Pzc3NsFqtX/yF3UCoEY6BRrMRB2clXF1dHcLhMFZWVsok ndVqhdfrRbFYRLFYpO0QySfLMmKxGKLRKAYHB+FyudDV1YWWlhb4fD7YbLavnOSrEY4BK+EIsSwW C4xGI15//XUMDQ3hvvvuQ3NzM1ZXV3Hu3Dno9XocPnwYDocDhUKhROqx7RYKBUSjUUQiEWi1Wurt EslnsVioffhlRo1wHHiVura2BpfLBQCw2+3Yv38/HA4HZFnG9u3b8c///M+wWCy4//77USwWS8hK 2uBJKMsyFhYWEI1GcfXqVVitVrS1taGnp+dLL/lqhPsVWIeBlXLEKYhGo+jr64PVakU+n4dGo0Ey mcTa2hqy2Sxtg/znnQzR+Yjki8fjWF5expUrV+B2u9Ha2oq+vj40NjbCbDZ/qSRfjXAMWMIRomi1 WgQCAcRiMdxxxx2oq6ujjsTg4CC0Wi327dtXFk7RaDQVEwHY8xByR6NRxGIxDA4Owmq1wufzobe3 90sj+WqEY8B7qcAGCUOhEGRZRiQSwUcffQSDwYDFxUUkk0k8/fTT6OrqQiaTKZNwPAnJf5GaJWDj fMvLy1haWsLVq1fhdrvh9Xrh8/nQ1dUFm832ayn5aoRjICKcVqvF4uIiNBoNOjo64HA4AAA9PT24 9dZbYTAYkM1mFSUPHzqpRkKJyBqLxRCJRDA4OAibzYbW1lYq+ex2+6+N5KsRjgNPuHQ6jVAohN7e Xuzfv79k30KhQO05AEIVykuzzebb8aMcsixjZWUF8XgcQ0NDcLlc8Hq9aGlpQWdnJ+rr629oyVcj HAeWcFqtFqFQCFNTUzh48CC0Wi3y+bxwX/JdiVDVSjdRf5TUMPF2ic1ns9loqKWhoQEulwt6vX7T 5/w8USMcA5ZAOp0O+XweU1NTkGUZTqcTwAYJ2SAvgZJNxqtH9lzVSDvReC57LnZbIpHAysoKRkZG YDQa0draCr/fj87OTjgcDuh01/9xX/8e3EBgbbi1tTVcvHgRi4uLOHjwIHK5HCKRCHw+Hw2DKIEl h1KIRE3isV5rJanIE538T6fTGB0dRSAQgN1uh9frRV9fH5qamuB0Oq+b5JNq81I3IMsyTpw4gZGR kTKbTJIkVanG30Kl76JxWNF3fn+19kSSj9+/WCxClmVotVqYTCbq6XZ1dX3hkq8m4RjwyZe8fXY9 +1XJIVED+wKlUimMjIxgdHQUNpsNHo8Hfr8ffr8f9fX1n3s2c41wDPjkSyVVyO/P4lqcg2qOqeTt KrUh2k683dXVVaysrGBychIffPABtfn8fj9sNtvnIvlqhPsV+KEtkbFeCWr7KtlaSulOaseKzleN FBSN85IRESL5AoEAHA4H3G43Ojo64Pf7P1Nvt0Y4BqLArxrUxklFEkjkXVY6Tm072zbZj91/My8L ew4ytjsxMYEPP/wQra2taGtrQ0tLC02lv1bUCMeBl0DVeJlK5GH302q1JeOr1zLywJNOSYXyv1Xj GfPXSvYjko+EWrxeLzo6OtDd3Q2HwwGTybQpE6LmpTJ47733MDIyoihRlLxMJRuvkre62XOobWPP z+8jIqxSe6x0FPWDpGAZjUY4HA50d3fTSUQGg6HsenjUJJwA1+IMiIKzokCtqF0lW0xN7Yq86ErH VXtNatfJzuNIp9MIh8M4c+YMmpqa0NnZiZ6eHjidThiNRnHbNQn3Cd577z2Mjo6WxeE2I4mq+c63 Xa0EEp2XP7aa+B4AYVxRaX+lbey5ieQzmUyor6+H3++nE4mMRiM9vkY4Br/85S9LAr/A5sij9Hul fdTUaLUqtpIq5NUvu69an9VIx7fHHiPLMsxmM3p7ezEwMICOjg5IklRTqTzYwC9QPnjOqgk1FcZC ycZTG5ivtj2lY6sxAdjjRS+BknkgGolhv+t0OtjtdlitVoRCIUiShLa2Nmi12hrhWFQKi6jZZNVu I8Nk5DeRNBXZaEqotJ/oxeGPY2OPZHu1cT32u8FggMPhgEajoWPPmUwGfr+fXmeNcBxEgdlqHrzI juKPY+2dXC6HfD6PQqEAYIN4er0eOp0OWq1W0etkQaTNZq0illRsf0XXpHQs+9lkMtG/ZDKJ1dVV msYlSRLcbjc9pkY4BmpqileFBKLt/PGFQgGpVIrmrpH09Ewmg1wuB2BDDRmNRpjNZrhcLjQ2NsLh cMBqtUKn01Gi8u3z/SF9qkadiqRfNS8O2ddisaC+vh7AJ8Fito/AhlfLhktqhFNANXaZ2n6SJCGf z2NxcRHT09OYnJzEwsIC0ul0yfxVti1ynEajgcFggN1uR2NjIzo7O9HY2Egn0RCPUGR/VSOZWXXO q2/Rcex5dDodzGYzTCYTdDodlpeXkUqlykwEsr9Wqy0ZmagRjgF5iLyaEhn9aga6LMuIx+O4evUq hoeHEY/Hkc/n6dsv8iZZCZPP55HNZpFMJhEOhzE8PAy3240tW7agp6cHdrsdwCdBWBZ8X1iJpaR+ lVQr245Op4PFYqHTJJeXl5HNZsskGt8HvV4Pi8XySTtlZ/+KQy3YKvqdN74LhQLGx8fx8ccfU6OZ DRUohSqUJFKxWEQ+n6dzY4eHh9HT04Nt27bBbrcLJ1+z/RRtr8YhIH2qq6uDw+GAwWBAMpnE4uIi 1tfX6f5KLyf5bzAYahKuGlQKMYgIWCwWMTIyglOnTmFhYaHE7mKlG7u/qE3ROUhbc3NziMViCIVC 2LVrF9rb22nau0jSigimRG52O/E4tVot1tbWqJQGPpGUaiqbnNNgMNRsODWIHlAlxwHYIM/w8DDe f/99LC0tUQLwkk0p6MpLF1EYg3zPZDIYHx9HLBbD9u3bsWPHDjgcjpJwC4GofaX4miR9MkZaLBaR TqextrZW4nGK7hd7LlbaF4tFWK3Wklp5NcIxYKfXVRtjI5icnMSHH36I5eVlKo14UpHPolCHmsrm v2s0GuTzecTjcaq6v/a1r8Hr9ZbsJyKDkldttVppWCaRSCCdTtNrUJsGKQLbbl1dXUmssUY4BmwC JqAcSWe3SZKE5eVlnDlzBgsLC7R0lxKpRDaV2r58QBYoVc/ZbBZTU1NYW1vDwYMH4ff7hapaRGSt Vguz2QyLxYJ8Po9EIkFtTmKfsfvz90QUVuGvzWAwlDof/E2vQRkitZTP53H58mWEQiEUCoUytVZN eIJtj1er/P68lCJB5Gg0ilOnTkGn06GtrU3xfJIkQafTwWq10syP5eVlZDIZAKWerJoJoXYN7HY+ X662Eg0HVsKRz3yYgf2LRCIYGhqiUwdZCUdQjUpV6oMIbBvkfKTy5okTJzAzM1NWCYpIGxJUBjaC tUtLS7RUhei6la6d/a7k8UqSVJaaXpNwVUJEgHw+j5GREaysrJRVweSP471UNa9XSc2y+7Gf2X2j 0Sjeffdd3H333fD5fNQRIBItkUiUDT2x/0WqvVIoSI10JpOpZFtNwjFQk2SifZeWljA5OamoSnlp VmnGfiWJIjqOoFgsolAooFAoIBQK4YMPPsD6+joaGxtRX19P43ipVKqkbrGofVEflO4L+RO1R0Yl WNQknACiN1b0lk9NTSEej5eFQMjvrNRQMuSVVKdoVEAtfgZskE6r1cLn88HtdmNiYgI6nY7WtGMd AT70whNf6Z6oeb98iEWn05VJuBrhOCipGP6hpNNpTE9PI5fLlak/UfyMbYNVQ/zDUyKVyHtmSW42 m9Ha2gqLxYJcLoeRkRFcuHABsViMFuJRUnuV7oVaWEjNmTAYDLDZbCXba4SrAKWHn0gkEIvFymwz kVoVtacURmA/8/aRyH4zGo1ob2+H0+nE4uIiAoEAUqkUnSV25coVeL1ebN26teQ4XrophTb48ylJ WNF16fX6sok1NcIJoGYEE7BZEmqEUHqQarYZG//iHySxv5xOJ3w+H2R5YxLzhQsXykIbxWIRq6ur OH36NOrr6+H1elVfAtE2NRJWgl6vL6tVVyPcNUCWZSwtLZXVilMLjrL7ib6zD1gpq0Or1cLtdsPp dMJutyMUCiESiZSENQjRWFstEongzJkzuPfee+lAOi+V+L6pbeOvTemz0WgsKxdRIxyDuro66HQ6 moWr9ABIeo7SiIJSWINXmbwkY8nH2mc6nQ5NTU3wer3IZDIIBoMIBAKUNESK8A4AIV+hUMDExARG R0exY8cO1Xsgsiv5vlc6RpI2xlFNJlPJNQI1wpWASJD19XXkcjmsr6+XeZOSJCGXyyGZTJZ4nkqB XvJdRDaNRoO6ujrY7XaYTCYUCgUkk0mkUink83ma/et2u5HP5xEIBGjMj21To9HQNCU2Hsiq1nQ6 jQsXLqC1tRUul6skjKOmUpWg5OWyx4vWGKsRjkE6nUY0GoXRaITNZoPFYsHa2hodXyTI5XJIp9NV t8sTVqPRQKvVoqGhATt37kRvby/MZjMKhQKWl5cxPT2NZDIJjUaDeDyOsbExSkLSBlBu77HnI/+J lCwUCgiHwxgaGsLXvvY1RVXJfhd5xvw51FBfX18jXCXI8sas8vX1dRiNRuj1ethsNmQyGRo0zWaz dC4Cf2wlEBXY29uLgwcPorW1lUoig8EAv9+PPXv2IB6P48KFC5icnKQl+dk1vPjwCoFGo6EmASt9 ZFlGLpfD1atX4ff70dLSUiIpeZIRyciSV2QqqDk+oopLX3nCqXlh6+vryGQySKfTMJvNNE9sZWVF OLpA2uO/k20kGt/c3Iw777wTbW1tkKSNFB6DwQCtVot0Oo319XUUi0Xs2LEDDQ0NOHnyJEZGRpDP 50vaIiABXwA0wMuShZAHAJaWlnDp0iV4PB5KCKXwiMg2VAs8ExApLqqydMMNbVUjJT4LkCGgK1eu lHibov4UCgUkEgksLi4ik8nA4XBgYGAAXq8XOp1OtWwCfz11dXXYuXMnWltbYTQa4XK5YLFYkMlk sLS0REMt5KH5fD7ce++92L59O42tkd/Iw+e3qy23mc/nMT4+joWFhbLhKH41RfKZl6KikA7bDnmJ RIsU3zASrlgs4tKlS1hbW4NGo8G+ffs+l8LH6XQawWAQmUwGmUwGfX19Za47f4PZz+vr6wiHwxgf H4fH40F9fT0ymQxmZ2exurpaZojz/xsaGrB371643W4AwOrqakkOGv8gZVmGw+HAoUOHUCgUMDo6 WiLpRCDkYb1V0m6xWEQymUQgEEBzc7OincarWR4iaccer9VqhetF3DCE+/DDD3Hu3Dk88cQT+NGP fgSn00mj458WRELNzc0hHo/D4/Fgy5YtJUVWWCjdeAKNRoPV1VVMTk5Cr9fD6/Wiv78f8XgcoVAI q6urVLURKWM2m9HU1IRDhw7B4/FgdXW1ZAWbSvVMXC4XDh8+jGw2i4mJCTrVUCR9SHui8VuSyjQ+ Po7+/n54PB7hzCu+Pb4dNULKsgyTySS8vzcE4WKxGP7nf/4H3/3ud+FyuZDJZDA/P/+pCVcoFDA1 NYVoNAqdTofOzk709fUpVnBkg6ZKkXZZlqHX66HX6yFJn8wvmJ2dhcViQXd3NwAgHA4jEonAYDCg vb0dDoeDZmusrq4CKJd+BEo2pdvtxq233orFxUUsLy+XFTgEUEIelhTsXNZisYjFxUVMTEzA4/EI yaNm2yqFQ9hjzWbzjUu4V155BdlsFp2dncjn8yVjlNcCMp1tamoKNpsNfX19cLlcFV15MoeSSAHR TCtJ2kgqJKQl6iubzSKdTiMWi8HpdMLr9WLbtm1YWVlBJBLB2NgYtWtEUrNadHR0YNeuXTh58iRy uVyZ46IkpfiAcC6Xw+TkJPr7+0tsLaVREl7tqqlTACXlKlhcd8IVCgX88pe/xM6dOxGNRjE/P4/B wUE89dRTm2qHDDfNzMwgkUigq6sLe/furWqN+WKxiHg8jlQqBUn6JK0ml8shk8mUqS+9Xl+WdgN8 8pDIKoAajQbBYBCJRAIajQZ2ux0Wi+VTEU6r1WLnzp2YmJhAMBgss/uUVB1PmGKxiEgkgsXFRVgs FsVhKvYY0TY+5kc+GwwGYYzwuhNufn4es7OzuOuuuzA2NoYLFy4AgGJePo9MJoNQKIRoNAqTyQSP x4MdO3ZUtcBZNptFJBLB7OwsYrFYSTA3m83ScAWRYCQVicwJ4O0kfgw0m82W2WnEQVEineiB8g5M fX09+vv7EQqFkM/nhR4pD74NWZZpBUtSu438xpsQfEikko0rSZKifXzdCRcMBuFwOPDwww/D4XBg fHwcd9xxR8mUNx4kOBsMBjE7O4uGhgY6E70akBs9MTGBeDyOXC4ntHnIDHOSxGg0GpHL5ZDNZumy 5NUERMl2ErtTsoFYiOw6dl+/34+GhgaEQqGSc7B2Gi91WJVKQiRkLdhKL0C1fSOfldZ4uO6EW19f p0b16uoqzp49i9///d8X7lsoFLCysoLZ2VkAGzGtgwcPVlXMWJY3Fj+bnp7G/Pw8Dd4qhQVYkLJa Wq2WOgxNTU2w2WxYWVmp+MaTB1ooFIQjFGpBVTbzg/2dlDWNRCIl18EGeZW8SfZ6w+EwwuEwTV0S vSj8MUpgJfkNK+FaWlrQ2tqKYrGId955Bx0dHdi9e3fJPkT1RSIRFItFtLe3o7GxUWgj8MjlcojH 45ienkYoFCoJrKo5EeS3QqFAZ6ATByAcDiMej8PpdKKurg5ra2tIpVI0H42VJPx1JJNJ+l1pPxZK 10i87nPnziGdTlP1zpJLKc2JkFiWZSSTSUSjUVWNIoJI7ZLPZE0vYb83dZbPAT09PfD5fHjppZdQ LBbxne98h9bKWFtbw/j4OLLZLOrr67F9+3bF6tg8stks5ufnEQwGsbCwUGJLqXlyZJ5nPB5HLBbD /Pw8IpEI4vE4HchnPVitVgur1YqGhgbkcjksLy/TLBO2bVmW6YvDS1aglHy8elcCGaUgtmc1LxAL 0qdYLFYxzKEkhXmySZJUVhOOxXUnnF6vx4MPPojl5WUa+Z6dnUU8HsfU1BS2bt2K9vb2qlY/IW9s JBJBMBjE8vIyNarVYkrAhmpfXl5GKBRCKBTCwsICVlZWsL6+TlUqP6ue2EGZTAYajQYmkwnNzc1I JpPIZrNlEqZQKGBubg7ZbJY+EF7aVqO6CEwmU9nwETt4z16jUntkbDiXy5XcYxHxRC+IyH6rq6sr m8tAcN0JBwBWqxUGgwGxWAwTExPI5XLo7+/HTTfdVJXaJKnUU1NTmJubo0NMlYhG7LqZmRlMTk4i HA7TypRkeXFCMqWZWQSkVEIymYRWq4XT6YTH48HKygqi0Sgdrw2Hw1hZWUFTU1OZVNssyDQ8nlB8 ocFKEiqRSGB9fR0Gg0HRcRB5okok1ul0N67TkEgkEAqFEIvF4PP5sHXrVng8nqqOzWazWFhYoGoz lUrR3yo9wEQigUAggImJCcRiMZp0yUszURUkEVHIdkLUSCQCj8eDbDZLK1dmMhkkk0mMj4+joaGh pD9qYQce1YZZRCRhQWw5UpeX5K+JiKkWEuF/I3WKRbguhCsWi0gkErh69SqKxSJaWlpw8803K3o2 PMjQFyEa8fwqkUySNrJ1p6amcPXqVczPzyOdTpcQjQR51cgmIhr/ICRJQjabRSKRoDE9t9uNYrGI mZkZDAwM0IBrJYIpgfSTV3lKVQDYc7AvTTabxdraWlkf1NQwIF5iANioLXdDSLhcLodQKITR0VF4 vV60t7ejqampqqwQYp8Fg0GEw2EsLy8LjW8lSJKEeDyOy5cvY3x8nFYK2izRSFuibWxfebVLCs4Y jUZks1nI8kbCZS6XK6n5qyTpRNcjyzJ92USEVwrP8NuJJy46h+h4VmWL9lNz7D53wsnyxkKwZNIw ABw4cICqmUoghZnD4TBmZ2dLwgqVjmcfXiQSwfnz5xEMBpFOp5HNZqmNRh44+a9GNvJfqbYtAZuf Rmwag8GA+vp67N69G3a7HYVCoWQqHT+putL1ERWtREyR1ymSSLIsl3i6lRyWSv0ym83K4RzVIz8F isUiotEopqenUSwW0djYiPb29qpXGc5ms4hGowgGgyVT4UTgbxLrMEjSRoWj06dPIxQKUbLxXqdS xUq19lmwD5EQjQ0UGwwGWCwW9Pb2oq+vjwaCiUrUarUwGo1U2vKVzknb7PkTiUTJ3Fj2OkT3SOl6 isUiMpmMsEi10n1WCxCrjfh85oQj6Tq5XA6JRAK9vb1oaGioamwTANbW1uj46sLCQsWwBqBsHEvS RrHACxcuYH5+viSGJlKfIih5aPx5WUNekjYSANiFPkh2b09PD4xGo1DlsjEs0k+lbORisYjZ2Vmk 0+kSwrFhEd7O5PvKfmaP4dW7KPQhuh8EaibSZ0I44lpHo1GEQiE4nU66bno1IGGN2dlZzMzM0OGi au0zFizZ1tfXMTg4iNnZWapCeclG+s+CtVH4iSaiYCg5H6tGiWQj6pQQrqmpSXj/CPL5PPL5PE0V J7VC2GAzmc01PDxM7UEinfR6fZl0VJJMle6hqH+i/XhT4nMjXLFYxPz8PJUe3d3d2L9/v+KwBg9i nxFHgLytSkSrZF/wYn5mZgYzMzMlzoFasWelNkUqlYAd5ySEI1KK1LfV6/UwGo1wu90wm81lnq7o GohNSYhUV1dHj1lbW8PFixcxMzNT8uKQhAN+LLUS2HkQaveT3S56DkTCqo1tXxPh1tbWsLy8jOHh YdTX16OzsxMul6uqIC2woXZJxmkkEqHqhFyMEiq9aez3ZDJJa9+yZOPbUfII+YApv43tL6tOyR/J 6Sd2nNFohNPppMsYiRwRljhEapG4HpFwuVwO4XAYV65cUXRqRH1n+8/buMQE2Iw2EdmErO2qhKoJ RzyZ6elpTE9Po7u7GwcOHBDOrlZCMplEKBTC1NQUEolEVfYZe35APamQbJMkCdFolNqASraamhGs 9AbzzgF7fpbQxPAnpVh1Oh3m5uaQTCZpKIT0i5CKZJMQFcp+zmazdNpiPp+HVquFy+VCOp2mUwtF JoLIFGD7T0hCQhkiovL3h38m7HnIC6aEioTLZrOIx+OYm5ujKdh333131d4mmU0+MzODcDiMRCJx TfaZ2gXzEodIAVFQl4+3kXZ4T489h0gaifrG9kOn0yGdTmN1dRUajQZra2tlWR0i75L3nPk/9vyp VIpOViGTtZPJZJmjIZJ0LEhCaTUhkUowGAzXRrhsNouxsTEsLCzA4XCgvb2dTm2rBvl8HgsLC5ia mkI4HC5ZLqcatcm/mQS86pVlmaaCp9NppFIpRKNRXL16FYuLiyXxNiVJV0k1KZFNJGHJZyLBWFW+ urpa1iZ7DN8PlvwiqUsyapLJJOrq6kqSB4gkFXmdLIiNyafiqzkORGWy2cYE/LoMPEoIt7S0BEmS cOXKFToTvL+/n2a3VoP19XWEQiGats1m06pB9AbykoPYMCQ3jRRIJn+pVArZbBapVKpkdjwfa+PP yZONPbfaG88/QPY7seVYdUskjxrhRP0R9Y1/0GSebSKRgNlshtlsputjkRIVIttTkjaWobTZbKrX yp5PbYTHYrFUL+GGh4cxPDxMa15U622SybXz8/OYmpqiFX42ozaVJBkZ51tdXUUsFkMsFsPKykpJ VgfrfRaLRTr/QJThQVCNmuQlQ6XwAm9f8mQk0kpEfFFflD4rgdiOiUSCerYWiwUWi4VKPN5BkyQJ 9fX1JSv+iV4k0bnY/+TeiEp0sSgh3I4dO9DT0wOPx1OVx0nss8nJSToQXo19pqSayP98Pk+za0km STKZpLlplVKGWKNc6QYpOQbs/kqOiloIhRxbyakQ9Ye/N2qE438TqUDiZJAMXJINQuw8EsJxu90l uXD8dVQD0p9Ktn3JrzabrapgbSaTQTgcRjAYxNLSUlX2WSVjW5Y3xlzn5uYwPT2NWCxGB9hZKaYk tdgHxo4m8OcWPThRSKaa+Z6i33iVKroPauQRbdvs/qQf5PzFYhGpVIoW5dHr9bDb7cjn89Dr9Whu bqZZ1nwblSQrT85KGT+bCouQGhrVZtOyx4o6SS5oaWkJExMTmJqawuLiIvUueVXJG9FKqJQsyUMp JFLNtSn9rlRbg71uXoLyBFf7rrSP2n+NRkOzk2VZht1uR3d3Nzo7O4USUmQWKIENr6ihIuGITTA1 NYVIJFJSN+NaHAHyuVgsYmFhAePj43R5bn5EQGTzKL35vHQSLfMtshMrqcdK25Sum7X51IoGKvWP fFfqN/9ZaRshAvlPxnjr6+uxdetW7Ny5k2o1rVZbljjAawAl0smyrDqXgUCVcEtLSwgEAjSsUY19 Rk7OXzz7mbQbCARo6IIPhrISqhqVwt6MSgPyau3wfVaDUuhAkiQ6jlpy+EKLAAAaN0lEQVRN2zy5 lMhW6eUQeaAk8k/GdM1mM3w+HwYGBtDZ2VlW05iU/lJaXUcNxElRgyrhyMnJw6v2QZDOs58laSPF OhAI4PLly5TEahNUgHKJptYPkWpioaRelVQQ+7vIU2V/489PZu1Xo54r2UpK6lTpPz/ERiZyezwe 9Pf3o6+vryzbmHxmEwRIeINNHFDrIzmXGlR/dTgc2Lt3L7q6ujA2NoZQKCTMS+MfAE82Wd4o3X7x 4kWMjIwgmUwKI/9KZNushFNrR0liVFKh7HWxxBJJI7IvG4MUea0ib1DJiVFTo0qqk6g4p9OJzs6N ylFkPi/fdx5EAEiSRIsukuckIh9RqZWiG5RwRKXxRp9Go4HH44HT6UQsFkMgEEA0Gq044E5uQiqV QiAQwNmzZ+lAPSmop6Y++c8iA1bJoOUdCzU7SPSgRddSabtoH3b9hEqmSDXmihrRWIlGEj6dTifa 29vR19cHt9tdViOYnFcNsizTZ02kHmsjs+RTm8tAQH9NpVK4ePEiGhsb0d3dXRYt1mq1aG5uhsfj QSQSwcjICF0BWSTV8vk85ubmcObMGYyPj9MlrZVShNSGcETbRZKA/a+WGaJEXCXSVTLclSQu/0ck SyUVKeoTL2F5ohG1abVa0djYiI6ODvh8Ptjtdkq0SmpRBP5FZjOUJUkq0VL86s8iUMI5HA4cOHAA Y2NjOHnyJPr6+tDU1FS+dI1OB5/PB4/Hg5mZGTohhUw5I8HgwcFBDA4O0hVb1FK5q3nrRA+IV01K +/LHqJGVb0dJDar1i80t49WdqP+VSt+LiMt6nGazmdaka21thdvtLsn+qMaBEkHpGHY+B+lHoVCA 3W6vqFIlWdDq2toazbxtbW2F1+tVbGh9fR3T09MIBAIYHR1FIBDAyMgIHUetNAtKdDNE0ox2WPAg CEgflWrgqtlp1dp21bRRLG7UP2lpacHp06cpMdiq4GR/Wf4kbMJLM55gJLZHskPcbjeamprQ2NgI u91Ox7+vlWAESi+X0m9kbmsikUBLSwsOHz6smOghVLgWiwVbt27F4uIi5ubmsLy8DJ/PJ1zowWg0 UmmYSCTw9ttvY25urmLqD3tT2DdR9JtIMlSyH0U3SmQnqRGKPxdph/1ddDz5Y8/HB4JFKlJJghGC OZ1OuFwu1NfXw2azwWq10sRJ/v4qOQNqqGRH8mSTpA3H6NKlSzh27BhGRkbwW7/1W9i/f78i4YQS jsfKygoGBwfpwhVK2SPFYhHT09N4/vnn8fLLLyMSiZS8vZUkmkiqicih9LDId9ZOrKQSN/OdfyBK ZJNlGe3t7fB4PLhw4QKtmEnsYrZcPW+DkdldNpsNdrsdDocD9fX1NPuDlZKfRoqJILpHavctEong jTfewPHjx9HW1oY///M/xxNPPKE6PFoV4ciJQ6EQwuEwtFottmzZophNUigUcP78ebz00ks4evQo YrFYycPgL0aJhKKHy0sD0TZ2gJ/8Xo2KVTN4lWw+/oVgCdfQ0IDLly/T9HKTyVRS3NBsNsNqtcJs NtNESpPJBJPJhLq6OmqYV+NVXotEY9tjX0xRW+R3jUaDRCKBU6dO4Z133sHKygoeeughHDp0CI88 8kjFVLaqCUeQz+cxNTWFUCgEn8+HhoYGxXmI+XweH3/8Mf7t3/4Np06dorVuyYVtVqKp/bFSgw+9 VItqVK1IygKlE58lSUJHRwcaGxvpeggDAwNwOp10cg07hZCXKEqP5LOWaJXa5+9HLpfD6OgoXn/9 dVy+fBl79+7F17/+dbS2tkKr1eKuu+6qmKS7acIR5HI5zM3NYWJiAn6/Hz6fTzHxbn19Hb/4xS/w n//5nzh9+jRNtVbtmIJdwz5UYkizv2s0GpqWw48JilQsb6jztiP7ZrOf2W38+bVaLTo6OuByuRAK hbBlyxbcfPPNZU4D/1mEShKN73M1bVZzDv4Fm5+fx7Fjx3DixAm0tbXh8ccfx44dO6gJYzabceTI kYplb695mqBer0dnZyfcbjcmJiYQCoXQ1dWFpqamMjIZjUbce++9uOWWW3Ds2DH8+Mc/xuDgYFm2 CXvz2Cl3oplQRDqw44TEyF5dXaU1z0TlG5SgZiOKfq+0DynTarPZyupxVAORd662T7XkrcZ0IJ/X 1tZw7tw5vPbaa1hYWMB9992HBx54AE6nk04QAkDn4VbCNUs4Huvr6wgEAlhdXUVvby/cbreiFFtY WMArr7yC559/HqOjozSGx6sochHEUyM2jtFohMViobaPxWKByWSi6mpiYgIjIyN0WSF2Eg2feVJJ jajZbjzxCPk1Gg06Ojpgs9mQTCZx4MABdHR0KJZhEKEacmyWvKK2lEJOZJml1157DefPn8e+ffvw 6KOP0uvgk1vJKjuVCkd+ZqUejEYj+vv7sbi4iPn5eYyMjGDHjh1wOBxl+3o8Hjz11FM4cuQIjh49 iv/+7//GxMQElWIkkOl2u+mS2w6HA1arlS4pSeJa7MJmkvRJ2hN58OSGiGzGz8rTY0nHSmhSG87h cGzqXErkYNsn5xVtF7XFt6fmfc7Pz+P48eN455134PF48Md//MfYvXs3LUEhgtVqrUrCfaa1RSRJ gsfjgdvtRjwex8TEBACgr6+PVmpk0dbWhqeffhpHjhzBCy+8gKNHj6KpqQk7d+5Ec3MzLBaLcBaQ EnEI4ZSm1fH7V/L8ZEFQVvQAeTuQfQHcbnfJwht8O0r3Uak/SvtU64krXa9Go0EqlcKZM2fw8ssv IxwOl6hP4ogpodray59L9SRJkuB0OmG1WhEOhzE6Ooq6ujr4/f6yUIokSfD7/fjBD36Ab3zjG4hE IrQwM0G1nqaaBKsk3ZQelpLKVXr4hHAk7kbSt0XtVGOjsecSkVyt/9W0RdTn8PAwXn/9dZw/fx57 9uzBH/zBH6C7uxuyLNMkBDU1X+085c+1Ppxer0dbWxtaWloQCAQwODgIm80Gv99fpuv1ej36+vrQ 09ODhYUFTExMYH5+XrVMFwtyM8isLZakIrtNSbqxN5VNTGCJJuoPK91I8RpS51epr+yxla5LtK2S lKzG+wyHw3j33Xdx7NgxuN1ufPvb38bBgweh1+tVJRrft2qKfgNfUAVMrVaLrVu3IpvNYnx8HFev XkVTU5PQo9VoNGhsbITb7S5JhyIeLQteSpG3NZ1OC2us8ZJSSfqRtkRQCp2whCOzpMgivGqqW8m2 UjovT/5ridkR9Xn27Fm8/PLLmJ+fx+HDh/HQQw/RusQ82VhTgCc6Gd+tBl9oydW6ujps27YNq6ur GBoaQjQahc1mQ0dHR1lWCkmHcrvdmJubQzAYRCwWKykJzz9IUkaBZBLz9projz2ehZLKUpNuxEs1 GAxwuVzweDxVk62SymX3v1ZHh/U+jx07hg8//BA7duzAE088gYGBARQKBWQymU2HYCpVTGJxXYpK 22w27N+/ny5yOzw8DK/XC6fTWXaxJN7n8/loVgqZaA2gTLqQZSTZlCg1krFvLC+52P1ERrpIspFU 7s7OThgMBlrKlJVOlWxHpe3VEE3UX3LOhYUFnDhxAm+99RZMJhN+7/d+D4cOHYJery9bkqka+5K0 S/LwqsF1LZtvs9kwMDCAeDyOyclJTE5Owu/3w+l0lu2r1+vh9/vR0tKCmZkZGvPjPUYyS594VXwM DhCrYjVbjt2P/GeJxmZ2WK1W9PX1oaGhQbGMfzU2Kb/vtZJNo9EgnU7j448/xquvvopQKIRDhw7h N37jN+ByuWjFJjVpK/Ks2XtYzVwGguu+TgOwsVDZrl27EAqFMDQ0RO07UYEVk8mEvr4+eL1eTE5O Ynp6mq5zCgDxeJwu781WjlSb9f5pyCBJn5RXJStCd3Z2Ks5J3aw6/DTqs1gsYnx8HK+99hpOnz6N 5uZmPPLII7j55pvhcrlKlhvgyUS2s/0Q3SdZlktinpVwQxBudnYWqVSKSoZoNIqzZ8/C6XSit7dX mJVis9mwY8cOdHZ2YmxsDHNzc3SlwZWVlZIZ+zzJ1NQOb5jzXqqSZDOZTOjs7ER/fz+MRqPiqAI5 ntR/k6RPZqtfSwq4qG0AWF5exvHjx3H8+HFoNBocOHAAdrsdiUQC586do3MeRMWr+XtDoGRT1tXV /XpJuOeee44uFV5XV0ezjIPBIC5fvgybzYbu7u4y11uSNipm7969G52dnfjoo4/o8kUigrFEE21T eqPZ/+yYLlmKnJBt165dsFqtkGXx5GeNRoPl5WWcOnUKqVSKFpEpFotoampCMBjEbbfdVrUBzksd oj4/+ugjHD9+HJOTk9i2bRucTiet1WKz2VAoFDA0NIS9e/fSc7HEU3NY+PMD1Qd9getMOBIzCwaD +OY3v1nym1arhd/vh9frxczMDC5evAifz4fm5uayhylJElwuFw4fPgy73Y7nnnsOp06dQjwer8oG qkalimZGkUXMent7sXv3bjgcDirZ+Kl4Go0GJ0+exNtvv43+/n7ccccdcDgc0Gg0CIVC+MlPfgKb zYa77rqr6vvHB28DgQDefPNNfPTRR2hqasLBgweRTCbpiE9dXR1SqRQ0Gg2mpqZgs9mwfft2YWim WgLJsqy6LgOP60q4sbExnD59GhMTE5iZmUEwGERHR0fJPsRmI8kBU1NTdDVk3k7S6/W49dZbsXfv Xnz44Yf4r//6L7z33nu0ngYB79JXchD4ScVkGp7D4cBNN92EnTt30jUW+OPJOc6ePYt//dd/xW// 9m/jvvvugyx/kqvn9/vR3d0Ni8UiLCrD95lve3FxEcePH8exY8dQLBaxf/9+aDQajI2N0epJGo2G LjySTCah1+sxOjoKj8dDF+dl2+fvidL5iZapFteVcN3d3bh69Sq2bt2KRx55RLUeHUkOWFpawvj4 OGZnZ9HZ2SmM5BsMBtx5553YvXs3XnnlFbz44ou4fPkyXVISUJdqrHoVkc1kMqGxsRE7d+6kqp4n CZszFw6H8dxzz6GnpweHDh0qs+8KhQL6+vrQ2tpadi1qDzqdTuPSpUs4evQoAoEAuru70dLSgvn5 eVpckpCHjJqQwoiJRAI6nQ7Dw8Mwm82w2WyKgXH+/PwLW+0aHMB1JpxWq8Xk5CR6enqqKhMmSRuD 4S6Xi1ZRn5iYwLZt24TFre12O373d38X999/P1555RW88MILGBkZqTgkxP6xOXdkvgGx11paWgCI 1bVer6eqdXBwEKFQCA8//HCJJGSl7t69ewGUOw68XUmC21NTU3jttddw6tQpNDc34+DBg1haWsLQ 0BB9sdgZXIRs5HhSuzkYDKKurg579uyBwWAoeRlE3qvo5ax2WAu4zoRLp9M4ffo0nnzySQAbKenV eDvEZrvlllsQiUQwNjYGvV6P7u5uoZR0uVx48skncfjwYRw9ehQvvPACtWt4Z0EUYyNSraGhATfd dBO2bNlCnYNKHp5Go0EsFoNWq6WD4cDGrPy5ubmSOrmNjY2or68vIR3f1sLCAt5++2384he/QDab xbPPPotvf/vbGBkZwY9+9CPMz89TYrHxM3beMGmXrGAdDAZhMpnQ39+vOlkbKA+ZbGaUAbjOhFta WkKxWER/fz+CwSCMRqNwpRYlaDQaeL1eNDY2YnZ2FufOnYPb7UZPT4+QuK2trfjOd76DI0eO4Gc/ +xlefPFFhEKhslRxVrqR4n1+vx+7du2ic3TVxjGBUq8vn8/TMghkWzKZxOLiIj766CO8//77uO++ +6jTw0OSNgoBXbp0Ca+++ipGRkZw22234S//8i9xzz33oK6uDgMDA7jjjjvw85//HM8//zyGhobo C8w6MUBpokMmk6HVrMh1ElKqeaos8ap1GIDrTDhJkuDz+RCLxbC6uopbb731mtohcwgaGxsRCoVw 6tQptLe3C+dZSJKErq4ufO9738N9992Hn/70p3j11VexvLxcNm/CaDSivb0du3btoqlVrLGvBvZh NTc3I5fLIZvNQqvVIp/P00nMFy9ehCzL2Lt3L9rb20sGzQlJxsfHcfToUZw6dQqdnZ344Q9/iG98 4xvwer0l19Xc3Iw//MM/xAMPPEAlOVGxRO0R0rA2XTqdxvLyMq5cuQKLxYLGxsayjF5evbL3vprE S7r/3/zN3/xN1Xt/xrBarWhtbcX6+jp27dpVdcaBEvR6PVwuFx3wJyXBHA6H0PZobGzEwYMHsXPn Tmi1WoTDYWQyGej1ejQ0NGDfvn24/fbb0d7eTou4VANJkmCz2bC2toZCoQCn04nl5WVcunQJVqsV JpMJqVQKV65cwYULF2AwGPDQQw+VkIKo4hMnTuCFF17A7OwsnnjiCfzjP/4jHn30UVWbl1S9uuee e+B0OrGwsEDrwLAvFDkX8EmIKpPJoLGxUbgcuShQbrVa0dvbWzXpPrM5DTci1tbWMDIyglQqha1b t8Ltdis6C9lsFh9//DF+/OMfY2pqCrfddhu2bNlyTaUTiLQhaVUkJHH58mWMjY0BABoaGtDa2gqr 1YpQKIQ9e/ZAljdKXmUyGVy8eBH/93//h7GxMezfvx9/8Rd/gQcffHBTBjpBMBjEz372M7zwwguY mpqiZbzIkBQx/E0mE2w2G7Zt24Zdu3ZRdazm0Tc1NeHw4cNV23FfasIBG+ogFothYmICDocDbW1t qpkNJHUqkUiU1DHeDFjCsbE5ok4zmQz1elmpWSgUEAwG8c477+Dtt99GR0cHvvWtb+Hpp58Whkw2 g2KxiNHRUfz0pz/F0aNHMTU1RYPXZIjOYDDAaDTC4XBg165d6OvrK7km/nOxWERfXx9uv/32qu/R l55wBLIsIx6P4+rVq5R4drtdVeLNzs5idHS0ZN2JSucANmyvpqYmxfw9PrAqSRvLo588eRKvvvoq VldX8dhjj+EHP/gBdu3a9VlcfkkfxsfH8R//8R948803sbCwQBMo2Tij0+nELbfcAq/Xq+g1y7KM HTt2YP/+/VWf/ytDOAISfxodHYXD4cCWLVtU1VQ6naZlydh1XFnwwVmStUwIp3SLNRoN9T5fe+01 DA8PY//+/fj+97+PBx54AGaz+bO5aAFyuRymp6fx4osv4pVXXkE0GqUz4urq6mA2m9Hc3Ix9+/aV zDrjr33Pnj3YvXt31ef9yhGOoFgs0uXNSU01tZGOtbU1jI6O0nQooDwwSkAIx6tUfuyTnc3udrvx rW99C9/97nfR1tb2OVyxGLIsY2hoCM8//zxOnTqFlZUVGAwGGAwG2O12dHZ2Yvv27SUhHfZ6b731 Vmzbtq3q831lCUeQTqcRCoUQDAaxZcsW1Vp4xeLGytWBQICmVPGBY+CTMrWxWKwkM5n8TyQSePfd d/HWW29hcXERDz/8MP7sz/4MN99886ZCDJ8lcrkcxsfH8dJLL+Gdd95BOp2G1WqFy+VCV1cX2tvb y+6LTqfDHXfcAb/fX/V5vvKEI4jH45iZmUEqlUJzczPa29sVbTZZlukCw7OzsyXzAIin6XK5sLi4 WDLzK5PJ4PLly3jjjTdw5coV7Ny5E88++ywee+yxqpdr/7yRz+dx+fJlvPfee/jggw+Qy+XQ3NxM hx9ZKWcwGHDkyJGSeGAllBEun8/j4sWLMBgM2L59O03TJichNTyADY/u0qVL2LJli3AQ/dcRiUQC c3NzWF9fr7hkZ7FYpDPL5ufnaUKlVquF0+nE0tISfUChUAivv/463n33XZhMJjzzzDN45plnyrJj bhTk83mMjo7irbfewtjYGNxuN3w+X4kJYbPZ8OCDD27qZSkj3ODgIB599FH8yZ/8CZ599ln80z/9 E37+859Tknk8Hnzzm9/EY489hnA4jMcffxwHDhzAP/zDP1Sd9XmjQ5ZluqhcNpvFtm3bVG9qoVCg laQikQgkSYLD4cDKygpWVlZw8uRJHD9+HPPz87j//vvxp3/6p7jzzjuvKab2RSObzSIQCODKlSt0 RUJgQ/g4nU489NBDVa86CQiGtp577jnIsox7770XADA6Oor3338fTz75JLxeL/7lX/4FwWAQR44c QXNzMw4fPox///d/x1NPPYXt27d/Rpd5fUGG3LxeLyKRCCYnJ2E2m2ktXR5arRbt7e00S5nURz57 9izefPNNXLp0Cdu2bcNf/dVf4Xd+53dQX19/Ha7q2lBXV4ft27ejr68P0WgUQ0NDmJubQzqdrmpd Bh4ley8uLuLEiRMYGBhAd3d3yY633347vv71r5dNXr777rsRj8fx1ltvfYrLujFBkgNuuukm6HQ6 XLp0CRcvXiwpU8VCr9ejp6cHt99+O5qbm/H+++9jfHwczzzzDF5++WX80R/90a8V2Vjo9Xr4fD7c fffduOeee9De3g6z2bxprVay99TUFAKBAG677bayhv72b/8WkiRhenoa3/ve92i0ntT8HR8f/5SX dONCp9Ohs7MTra2tGBkZwZkzZ9DW1obm5mahV6nX63HgwAH85Cc/QTQaxcDAwOcaU/siodFo0NLS ArfbTdPVN3U8+4Wsny4a+nnyySfxwx/+ELfccgv+93//F8PDwwBAo9PsHMwvK3Q6HbZv3449e/bQ XL6ZmRnFnDi/349bbrnlS0M2FmTW12aH/UoI19DQQMcAeWzduhWHDx9GV1cXZmZmMDMzA2CDpKlU qmJt1y8TyFIBAwMDSCQS+OCDDzA/P4/Z2dlPPdXvy44SwnV0dGDbtm2YmJgok1h///d/j7vvvhsv vvgi9u3bhx07dgAALly4gHg8joGBgS+u1zcI7HY7brrpJuTzefzd3/0d3n777U2rmK8aSgw1s9mM xx9/HH/913+Ns2fP4uDBg7TQCYHL5cKePXvQ2tqKfD6PN954A1u2bMHhw4e/8M7fCJAkCf39/Whr a7thgrc3MspcjN/8zd/EyZMnMT09DQC48847ceeddwoPJpH073//+5uKNn/Z4HK5Kq5PUMMGhENb ZP5ipcBksVhELpeDXq+vqZIaqkJtLLWGLxQ1sVTDF4r/B4n87c+eUqMKAAAAAElFTkSuQmCC "
         id="image4335"
         x="89.840164"
         y="327.37762" />
      <path
         inkscape:connector-curvature="0"
         id="path4340"
         d="M 115.15739,499.55622 296.22723,389.19706"
         style="fill:none;fill-rule:evenodd;stroke:#888585;stroke-width:1px;stroke-linecap:butt;stroke-linejoin:miter;stroke-opacity:1" />
      <path
         inkscape:connector-curvature="0"
         id="path4344"
         d="M 227.72848,532.13364 246.92138,307.3747"
         style="fill:none;fill-rule:evenodd;stroke:#000000;stroke-width:1px;stroke-linecap:butt;stroke-linejoin:miter;stroke-opacity:1" />
      <path
         inkscape:connector-curvature="0"
         id="path4346"
         d="M 292.90108,449.05747 96.931483,365.71989"
         style="fill:none;fill-rule:evenodd;stroke:#000000;stroke-width:1px;stroke-linecap:butt;stroke-linejoin:miter;stroke-opacity:1" />
      <text
         sodipodi:linespacing="125%"
         id="text4352"
         y="297.29349"
         x="257.5889"
         style="font-style:normal;font-weight:normal;font-size:20px;line-height:125%;font-family:sans-serif;letter-spacing:0px;word-spacing:0px;fill:#000000;fill-opacity:1;stroke:none;stroke-width:1px;stroke-linecap:butt;stroke-linejoin:miter;stroke-opacity:1"
         xml:space="preserve"><tspan
           y="297.29349"
           x="257.5889"
           id="tspan4354"
           sodipodi:role="line">y</tspan></text>
      <text
         sodipodi:linespacing="125%"
         id="text4356"
         y="458.31128"
         x="305.9747"
         style="font-style:normal;font-weight:normal;font-size:20px;line-height:125%;font-family:sans-serif;letter-spacing:0px;word-spacing:0px;fill:#000000;fill-opacity:1;stroke:none;stroke-width:1px;stroke-linecap:butt;stroke-linejoin:miter;stroke-opacity:1"
         xml:space="preserve"><tspan
           y="458.31128"
           x="305.9747"
           id="tspan4358"
           sodipodi:role="line">x</tspan></text>
      <text
         sodipodi:linespacing="125%"
         id="text4360"
         y="516.8595"
         x="93.581253"
         style="font-style:normal;font-weight:normal;font-size:20px;line-height:125%;font-family:sans-serif;letter-spacing:0px;word-spacing:0px;fill:#000000;fill-opacity:1;stroke:none;stroke-width:1px;stroke-linecap:butt;stroke-linejoin:miter;stroke-opacity:1"
         xml:space="preserve"><tspan
           y="516.8595"
           x="93.581253"
           id="tspan4362"
           sodipodi:role="line">z</tspan></text>
      <path
         inkscape:connector-curvature="0"
         id="path4368-3"
         d="m 250.99825,308.25708 -8.44022,-0.94249 5.50555,-9.25154 z"
         style="fill:none;fill-rule:evenodd;stroke:#000000;stroke-width:0.46070111px;stroke-linecap:butt;stroke-linejoin:miter;stroke-opacity:1" />
      <path
         inkscape:connector-curvature="0"
         id="path4368-6"
         d="m 112.01506,495.93233 5.76442,6.23674 -10.2177,3.39128 z"
         style="fill:none;fill-rule:evenodd;stroke:#000000;stroke-width:0.46070111px;stroke-linecap:butt;stroke-linejoin:miter;stroke-opacity:1" />
      <path
         inkscape:transform-center-y="4.0493499"
         inkscape:transform-center-x="7.0788849"
         inkscape:connector-curvature="0"
         id="path4368-5"
         d="m 289.52252,452.43732 5.77116,-6.23051 4.17308,9.92409 z"
         style="fill:none;fill-rule:evenodd;stroke:#000000;stroke-width:0.46070111px;stroke-linecap:butt;stroke-linejoin:miter;stroke-opacity:1" />
    </g>
  </g>
</svg>
